Project 1: Wrangling, Exploration, Visualization
…
# your tidying code (if applicable; can also wait until
# wrangling section)
nbaplayers %>% pivot_wider(names_from = "team", values_from = "team_abbr")

## # A tibble: 494 x 35
##    first_name last_name position number height Thunder Hawks Heat  Nuggets Spurs
##    <chr>      <chr>     <chr>     <dbl>  <dbl> <chr>   <chr> <chr> <chr>   <chr>
##  1 Alex       Abrines   Guard         8     78 OKC     <NA>  <NA>  <NA>    <NA> 
##  2 Jaylen     Adams     Guard        10     74 <NA>    ATL   <NA>  <NA>    <NA> 
##  3 Steven     Adams     Center       12     84 OKC     <NA>  <NA>  <NA>    <NA> 
##  4 Bam        Adebayo   Center-     13     82 <NA>    <NA>  MIA   <NA>    <NA> 
##  5 DeVaughn   Akoon-Pu Guard-F     23     78 <NA>    <NA>  <NA>  DEN     <NA> 
##  6 LaMarcus   Aldridge  Forward      12     83 <NA>    <NA>  <NA>  <NA>    SAS  
##  7 Rawle      Alkins    Guard        20     77 <NA>    <NA>  <NA>  <NA>    <NA> 
##  8 Grayson    Allen     Guard        24     77 <NA>    <NA>  <NA>  <NA>    <NA> 
##  9 Jarrett    Allen     Center       31     83 <NA>    <NA>  <NA>  <NA>    <NA> 
## 10 Al-Farouq  Aminu     Forward       8     81 <NA>    <NA>  <NA>  <NA>    <NA> 
## #  with 484 more rows, and 25 more variables: Bulls <chr>, Jazz <chr>,
## #   Nets <chr>, Blazers <chr>, Grizzlies <chr>, Suns <chr>, Pacers <chr>,
## #   Bucks <chr>, Mavericks <chr>, Rockets <chr>, Raptors <chr>, Magic <chr>,
## #   Hornets <chr>, Kings <chr>, Knicks <chr>, Lakers <chr>, Timberwolves <chr>,
## #   Celtics <chr>, Wizards <chr>, Warriors <chr>, Clippers <chr>,
## #   Pelicans <chr>, Sixers <chr>, Pistons <chr>, Cavaliers <chr>

nbastats %>% pivot_longer(2:3, names_to = "Weight/Age", values_to = "Value")

## # A tibble: 1,042 x 12
##    Name  Salary Points Blocks Steals Assists Rebounds `FT%` `FG%`    MP
##    <chr>  <dbl>  <dbl>  <dbl>  <dbl>   <dbl>    <dbl> <dbl> <dbl> <dbl>
##  1 Alex 5.46e6    5.3    0.2    0.5     0.6      1.5 0.923 0.357  19  
##  2 Alex 5.46e6    5.3    0.2    0.5     0.6      1.5 0.923 0.357  19  
##  3 Quin 2.14e5    1.7    0.4    0.1     0.8      2.5 0.7   0.222  12.3
##  4 Quin 2.14e5    1.7    0.4    0.1     0.8      2.5 0.7   0.222  12.3
##  5 Jayl 2.37e5    3.2    0.1    0.4     1.9      1.8 0.778 0.345  12.6
##  6 Jayl 2.37e5    3.2    0.1    0.4     1.9      1.8 0.778 0.345  12.6
##  7 Stev 2.42e7   13.9    1      1.5     1.6      9.5 0.5   0.595  33.4
##  8 Stev 2.42e7   13.9    1      1.5     1.6      9.5 0.5   0.595  33.4
##  9 Bam  2.96e6    8.9    0.8    0.9     2.2      7.3 0.735 0.576  23.3
## 10 Bam  2.96e6    8.9    0.8    0.9     2.2      7.3 0.735 0.576  23.3
## #  with 1,032 more rows, and 2 more variables: `Weight/Age` <chr>, Value <dbl>
…
## Rows: 494
## Columns: 8
## $ first_name <chr> "Alex", "Jaylen", "Steven", "Bam", "DeVaughn", "LaMarcus",
## $ last_name  <chr> "Abrines", "Adams", "Adams", "Adebayo", "Akoon-Purcell", "
## $ team       <chr> "Thunder", "Hawks", "Thunder", "Heat", "Nuggets", "Spurs",
## $ team_abbr  <chr> "OKC", "ATL", "OKC", "MIA", "DEN", "SAS", "CHI", "UTA", "B
## $ position   <chr> "Guard", "Guard", "Center", "Center-Forward", "Guard-Forwa
## $ number     <dbl> 8, 10, 12, 13, 23, 12, 20, 24, 31, 8, 1, 1, 15, 13, 34, 37
## $ height     <dbl> 78, 74, 84, 82, 78, 83, 77, 77, 83, 81, 78, 81, 82, 82, 83
## $ name       <chr> "Alex Abrines", "Jaylen Adams", "Steven Adams", "Bam Adeba

nbastats %>% distinct()

## # A tibble: 521 x 12
##    Name  Weight   Age  Salary Points Blocks Steals Assists Rebounds `FT%` `FG%`
##    <chr>  <dbl> <dbl>   <dbl>  <dbl>  <dbl>  <dbl>   <dbl>    <dbl> <dbl> <dbl>
##  1 Alex    200    25  5.46e6    5.3    0.2    0.5     0.6      1.5 0.923 0.357
##  2 Quin    240    28  2.14e5    1.7    0.4    0.1     0.8      2.5 0.7   0.222
##  3 Jayl    190    22  2.37e5    3.2    0.1    0.4     1.9      1.8 0.778 0.345
##  4 Stev    265    25  2.42e7   13.9    1      1.5     1.6      9.5 0.5   0.595
##  5 Bam     255    21  2.96e6    8.9    0.8    0.9     2.2      7.3 0.735 0.576
##  6 Deng    200    21 NA         1.7    0.2    0.1     0.3      1   1     0.306
##  7 LaMa    260    33  2.23e7   21.3    1.3    0.5     2.4      9.2 0.847 0.519
##  8 Rawl    225    21 NA         3.7    0      0.1     1.3      2.6 0.667 0.333
##  9 Gray    198    23  2.07e6    5.6    0.2    0.2     0.7      0.6 0.75  0.376
## 10 Jarr    237    20  2.03e6   10.9    1.5    0.5     1.4      8.4 0.709 0.59 
## #  with 511 more rows, and 1 more variable: MP <dbl>

nbaplayers %>% distinct()

## # A tibble: 494 x 8
##    first_name last_name   team   team_abbr position   number height name        
##    <chr>      <chr>       <chr>  <chr>     <chr>       <dbl>  <dbl> <chr>       
##  1 Alex       Abrines     Thund OKC       Guard           8     78 Alex Abrines
##  2 Jaylen     Adams       Hawks  ATL       Guard          10     74 Jaylen Adams
##  3 Steven     Adams       Thund OKC       Center         12     84 Steven Adams
##  4 Bam        Adebayo     Heat   MIA       Center-Fo     13     82 Bam Adebayo 
##  5 DeVaughn   Akoon-Purc Nugge DEN       Guard-For     23     78 DeVaughn Ak
##  6 LaMarcus   Aldridge    Spurs  SAS       Forward        12     83 LaMarcus Al
##  7 Rawle      Alkins      Bulls  CHI       Guard          20     77 Rawle Alkins
##  8 Grayson    Allen       Jazz   UTA       Guard          24     77 Grayson All
##  9 Jarrett    Allen       Nets   BKN       Center         31     83 Jarrett All
## 10 Al-Farouq  Aminu       Blaze POR       Forward         8     81 Al-Farouq A
## #  with 484 more rows

anti_join(nbastats, nbaplayers, by = c(Name = "name"))

## # A tibble: 65 x 12
##    Name  Weight   Age  Salary Points Blocks Steals Assists Rebounds  `FT%` `FG%`
##    <chr>  <dbl> <dbl>   <dbl>  <dbl>  <dbl>  <dbl>   <dbl>    <dbl>  <dbl> <dbl>
##  1 Quin    240    28  213949    1.7    0.4    0.1     0.8      2.5  0.7   0.222
##  2 Deng    200    21      NA    1.7    0.2    0.1     0.3      1    1     0.306
##  3 Kade    192    26      NA    9.9    0.2    0.8     4        2.7  0.778 0.461
##  4 Wade    200    22 1544951    1.9    0.1    0.1     0.8      0.9  0.727 0.303
##  5 Moha    221    20 4865040    6.2    1.4    0.3     0.8      5    0.587 0.481
##  6 Dair    200    29  194220    2.8    0      0.1     0.8      0.8 NA     0.255
##  7 Jaro    220    25      NA    4.2    0.3    0.3     0.5      3.6  0.769 0.443
##  8 Andr    260    34 2393887    3.5    0.7    0.3     1        5    1     0.5  
##  9 Core    186    32  270496    4.9    0.2    1       1.3      2.5  0.721 0.431
## 10 Brun    218    23  487000    8.3    1      0.4     1.5      4.6  0.84  0.427
## #  with 55 more rows, and 1 more variable: MP <dbl>

nomatch <- anti_join(nbastats, nbaplayers, by = c(Name = "name"))
anti_join(nbaplayers, nbastats, by = c(name = "Name"))

## # A tibble: 38 x 8
##    first_name last_name   team   team_abbr position   number height name        
##    <chr>      <chr>       <chr>  <chr>     <chr>       <dbl>  <dbl> <chr>       
##  1 DeVaughn   Akoon-Purc Nugge DEN       Guard-For     23     78 DeVaughn Ak
##  2 Ryan       Anderson    Suns   PHX       Forward        15     82 Ryan Anders
##  3 Wade       Baldwin IV  Blaze POR       Guard           2     76 Wade Baldwi
##  4 Mo         Bamba       Magic  ORL       Center          5     84 Mo Bamba    
##  5 Jabari     Bird        Celti BOS       Guard          NA     78 Jabari Bird 
##  6 Trevon     Bluiett     Pelic NOP       Guard-For      5     78 Trevon Blui
##  7 Tyler      Davis       Thund OKC       Center         34     82 Tyler Davis 
##  8 Vincent    Edwards     Rocke HOU       Forward        12     80 Vincent Edw
##  9 James      Ennis III   Rocke HOU       Forward         8     79 James Ennis
## 10 Keenan     Evans       Pisto DET       Guard          12     75 Keenan Evans
## #  with 28 more rows

nomatch2 <- anti_join(nbaplayers, nbastats, by = c(name = "Name"))

# your joining code
inner_join(nbastats, nbaplayers, by = c(Name = "name"))

## # A tibble: 456 x 19
##    Name  Weight   Age  Salary Points Blocks Steals Assists Rebounds `FT%` `FG%`
##    <chr>  <dbl> <dbl>   <dbl>  <dbl>  <dbl>  <dbl>   <dbl>    <dbl> <dbl> <dbl>
##  1 Alex    200    25  5.46e6    5.3    0.2    0.5     0.6      1.5 0.923 0.357
##  2 Jayl    190    22  2.37e5    3.2    0.1    0.4     1.9      1.8 0.778 0.345
##  3 Stev    265    25  2.42e7   13.9    1      1.5     1.6      9.5 0.5   0.595
##  4 Bam     255    21  2.96e6    8.9    0.8    0.9     2.2      7.3 0.735 0.576
##  5 LaMa    260    33  2.23e7   21.3    1.3    0.5     2.4      9.2 0.847 0.519
##  6 Rawl    225    21 NA         3.7    0      0.1     1.3      2.6 0.667 0.333
##  7 Gray    198    23  2.07e6    5.6    0.2    0.2     0.7      0.6 0.75  0.376
##  8 Jarr    237    20  2.03e6   10.9    1.5    0.5     1.4      8.4 0.709 0.59 
##  9 Al-F    220    28  6.96e6    9.4    0.4    0.8     1.3      7.5 0.867 0.433
## 10 Just    230    25  2.52e6    3.7    0.3    0.5     0.5      1.8 0.743 0.408
## #  with 446 more rows, and 8 more variables: MP <dbl>, first_name <chr>,
## #   last_name <chr>, team <chr>, team_abbr <chr>, position <chr>, number <dbl>,
## #   height <dbl>

joinedNBAdata <- inner_join(nbastats, nbaplayers, by = c(Name = "name")) %>% 
    select(-first_name, -last_name)
joinedNBAdata

## # A tibble: 456 x 17
##    Name  Weight   Age  Salary Points Blocks Steals Assists Rebounds `FT%` `FG%`
##    <chr>  <dbl> <dbl>   <dbl>  <dbl>  <dbl>  <dbl>   <dbl>    <dbl> <dbl> <dbl>
##  1 Alex    200    25  5.46e6    5.3    0.2    0.5     0.6      1.5 0.923 0.357
##  2 Jayl    190    22  2.37e5    3.2    0.1    0.4     1.9      1.8 0.778 0.345
##  3 Stev    265    25  2.42e7   13.9    1      1.5     1.6      9.5 0.5   0.595
##  4 Bam     255    21  2.96e6    8.9    0.8    0.9     2.2      7.3 0.735 0.576
##  5 LaMa    260    33  2.23e7   21.3    1.3    0.5     2.4      9.2 0.847 0.519
##  6 Rawl    225    21 NA         3.7    0      0.1     1.3      2.6 0.667 0.333
##  7 Gray    198    23  2.07e6    5.6    0.2    0.2     0.7      0.6 0.75  0.376
##  8 Jarr    237    20  2.03e6   10.9    1.5    0.5     1.4      8.4 0.709 0.59 
##  9 Al-F    220    28  6.96e6    9.4    0.4    0.8     1.3      7.5 0.867 0.433
## 10 Just    230    25  2.52e6    3.7    0.3    0.5     0.5      1.8 0.743 0.408
## #  with 446 more rows, and 6 more variables: MP <dbl>, team <chr>,
## #   team_abbr <chr>, position <chr>, number <dbl>, height <dbl>

joinedNBAdata <- joinedNBAdata %>% na.omit()
joinedNBAdata

## # A tibble: 417 x 17
##    Name  Weight   Age Salary Points Blocks Steals Assists Rebounds `FT%` `FG%`
##    <chr>  <dbl> <dbl>  <dbl>  <dbl>  <dbl>  <dbl>   <dbl>    <dbl> <dbl> <dbl>
##  1 Alex    200    25 5.46e6    5.3    0.2    0.5     0.6      1.5 0.923 0.357
##  2 Jayl    190    22 2.37e5    3.2    0.1    0.4     1.9      1.8 0.778 0.345
##  3 Stev    265    25 2.42e7   13.9    1      1.5     1.6      9.5 0.5   0.595
##  4 Bam     255    21 2.96e6    8.9    0.8    0.9     2.2      7.3 0.735 0.576
##  5 LaMa    260    33 2.23e7   21.3    1.3    0.5     2.4      9.2 0.847 0.519
##  6 Gray    198    23 2.07e6    5.6    0.2    0.2     0.7      0.6 0.75  0.376
##  7 Jarr    237    20 2.03e6   10.9    1.5    0.5     1.4      8.4 0.709 0.59 
##  8 Al-F    220    28 6.96e6    9.4    0.4    0.8     1.3      7.5 0.867 0.433
##  9 Just    230    25 2.52e6    3.7    0.3    0.5     0.5      1.8 0.743 0.408
## 10 Kyle    230    25 8.64e6    8      0.9    1.3     3        5.8 0.578 0.543
## #  with 407 more rows, and 6 more variables: MP <dbl>, team <chr>,
## #   team_abbr <chr>, position <chr>, number <dbl>, height <dbl>
…
Wrangling

# your wrangling code
joinedNBAdata %>% mutate(pointspermin = Points/MP)

## # A tibble: 417 x 18
##    Name  Weight   Age Salary Points Blocks Steals Assists Rebounds `FT%` `FG%`
##    <chr>  <dbl> <dbl>  <dbl>  <dbl>  <dbl>  <dbl>   <dbl>    <dbl> <dbl> <dbl>
##  1 Alex    200    25 5.46e6    5.3    0.2    0.5     0.6      1.5 0.923 0.357
##  2 Jayl    190    22 2.37e5    3.2    0.1    0.4     1.9      1.8 0.778 0.345
##  3 Stev    265    25 2.42e7   13.9    1      1.5     1.6      9.5 0.5   0.595
##  4 Bam     255    21 2.96e6    8.9    0.8    0.9     2.2      7.3 0.735 0.576
##  5 LaMa    260    33 2.23e7   21.3    1.3    0.5     2.4      9.2 0.847 0.519
##  6 Gray    198    23 2.07e6    5.6    0.2    0.2     0.7      0.6 0.75  0.376
##  7 Jarr    237    20 2.03e6   10.9    1.5    0.5     1.4      8.4 0.709 0.59 
##  8 Al-F    220    28 6.96e6    9.4    0.4    0.8     1.3      7.5 0.867 0.433
##  9 Just    230    25 2.52e6    3.7    0.3    0.5     0.5      1.8 0.743 0.408
## 10 Kyle    230    25 8.64e6    8      0.9    1.3     3        5.8 0.578 0.543
## #  with 407 more rows, and 7 more variables: MP <dbl>, team <chr>,
## #   team_abbr <chr>, position <chr>, number <dbl>, height <dbl>,
## #   pointspermin <dbl>
…
# your wrangling code
stringnba <- "LeBron James is the best player in the NBA today"
str_view_all(stringnba, "[aeiouAEIOU]")

# your wrangling code
joinedNBAdata %>% group_by(team) %>% summarize(mean_height = mean(height))

## # A tibble: 30 x 2
##    team      mean_height
##    <chr>           <dbl>
##  1 Blazers          79.4
##  2 Bucks            79.5
##  3 Bulls            79.1
##  4 Cavaliers        79.4
##  5 Celtics          78.7
##  6 Clippers         78.6
##  7 Grizzlies        79.1
##  8 Hawks            79  
##  9 Heat             78.7
## 10 Hornets          78.8
## #  with 20 more rows

joinedNBAdata %>% group_by(team_abbr) %>% summarize(n_distinct(position))

## # A tibble: 30 x 2
##    team_abbr `n_distinct(position)`
##    <chr>                      <int>
##  1 ATL                            6
##  2 BKN                            6
##  3 BOS                            3
##  4 CHA                            6
##  5 CHI                            5
##  6 CLE                            6
##  7 DAL                            6
##  8 DEN                            4
##  9 DET                            4
## 10 GSW                            4
## #  with 20 more rows

joinedNBAdata %>% mutate(assist_ratiopermin = Assists/MP) %>% 
    summarize(max(assist_ratiopermin))

## # A tibble: 1 x 1
##   `max(assist_ratiopermin)`
##                       <dbl>
## 1                     0.297

joinedNBAdata %>% group_by(team) %>% summarize(sd(Salary))

## # A tibble: 30 x 2
##    team      `sd(Salary)`
##    <chr>            <dbl>
##  1 Blazers       9123988.
##  2 Bucks         6515362.
##  3 Bulls         6657133.
##  4 Cavaliers     7737594.
##  5 Celtics      10501459.
##  6 Clippers      5678616.
##  7 Grizzlies    10120091.
##  8 Hawks         5264102.
##  9 Heat          7737897.
## 10 Hornets       7057216.
## #  with 20 more rows

joinedNBAdata %>% summarize(min(height))

## # A tibble: 1 x 1
##   `min(height)`
##           <dbl>
## 1            69

joinedNBAdata %>% group_by(team) %>% summarize(max(Weight), max(Age), 
    max(Points), max(Blocks), max(Steals), max(Assists), max(Rebounds), 
    max(MP), max(height), max(Weight))

## # A tibble: 30 x 10
##    team  `max(Weight)` `max(Age)` `max(Points)` `max(Blocks)` `max(Steals)`
##    <chr>         <dbl>      <dbl>         <dbl>         <dbl>         <dbl>
##  1 Blaz           275         30          25.8           1.4           1.1
##  2 Bucks           270         31          27.7           2.2           1.5
##  3 Bulls           275         30          23.7           1.3           1.5
##  4 Cava           255         37          17             0.6           1.5
##  5 Celt           260         32          23.8           1.3           1.8
##  6 Clip           290         34          20             1.3           1.2
##  7 Griz           255         34          21.1           1.4           1.3
##  8 Hawks           250         42          19.5           1.1           1.3
##  9 Heat            265         38          16.6           1.9           1.1
## 10 Horn           255         36          25.6           0.8           1.2
## #  with 20 more rows, and 4 more variables: `max(Assists)` <dbl>,
## #   `max(Rebounds)` <dbl>, `max(MP)` <dbl>, `max(height)` <dbl>

joinedNBAdata %>% group_by(team) %>% summarize(n())

## # A tibble: 30 x 2
##    team      `n()`
##    <chr>     <int>
##  1 Blazers      14
##  2 Bucks        16
##  3 Bulls        14
##  4 Cavaliers    14
##  5 Celtics      13
##  6 Clippers     15
##  7 Grizzlies    14
##  8 Hawks        16
##  9 Heat         14
## 10 Hornets      14
## #  with 20 more rows

joinedNBAdata %>% group_by(team_abbr) %>% summarize(n())

## # A tibble: 30 x 2
##    team_abbr `n()`
##    <chr>     <int>
##  1 ATL          16
##  2 BKN          15
##  3 BOS          13
##  4 CHA          14
##  5 CHI          14
##  6 CLE          14
##  7 DAL          15
##  8 DEN          13
##  9 DET          15
## 10 GSW          14
## #  with 20 more rows
…
Visualizing

# your plot 1
library(ggplot2)
joinedNBAdata %>% filter(Age > 30)

## # A tibble: 68 x 17
##    Name  Weight   Age Salary Points Blocks Steals Assists Rebounds `FT%` `FG%`
##    <chr>  <dbl> <dbl>  <dbl>  <dbl>  <dbl>  <dbl>   <dbl>    <dbl> <dbl> <dbl>
##  1 LaMa    260    33 2.23e7   21.3    1.3    0.5     2.4      9.2 0.847 0.519
##  2 Carm    240    34 2.55e7   13.4    0.7    0.4     0.5      5.4 0.682 0.405
##  3 Trev    215    33 1.50e7   12.5    0.3    1.3     3.7      5.4 0.793 0.399
##  4 D.J.    183    31 7.25e6   11.7    0      0.6     5.3      2.5 0.866 0.47 
##  5 J.J.    185    34 3.71e6   10.9    0      0.6     5.6      2.5 0.705 0.418
##  6 Aron    260    32 5.19e6    5.6    0.7    0.2     1.1      4.7 0.855 0.471
##  7 Marc    210    32 6.15e6   10.5    0.1    0.4     1.7      2.5 0.903 0.413
##  8 Jose    200    37 2.39e6    2.3    0.1    0.3     2.3      1.2 0.818 0.375
##  9 DeMa    215    32 1.54e7   11.1    0.1    0.5     1.3      5.2 0.76  0.395
## 10 Vinc    220    42 2.39e6    7.4    0.4    0.6     1.1      2.6 0.712 0.419
## #  with 58 more rows, and 6 more variables: MP <dbl>, team <chr>,
## #   team_abbr <chr>, position <chr>, number <dbl>, height <dbl>
…
